GTKWave_Test/wb_activation_gtkwave_relu_test/tb_wb_relu.vcd
$date
  Tue Nov 25 15:38:38 2025
$end
$version
  GHDL v0
$end
$timescale
  1 fs
$end
$scope module standard $end
$upscope $end
$scope module std_logic_1164 $end
$upscope $end
$scope module numeric_std $end
$upscope $end
$scope module tensor_operations_basic_arithmetic $end
$upscope $end
$scope module tensor_operations_pooling $end
$upscope $end
$scope module tensor_operations_activation $end
$upscope $end
$scope module tb_wb_relu $end
$var reg 1 ! clk $end
$var reg 1 " reset $end
$var reg 1 # i_wb_cyc $end
$var reg 1 $ i_wb_stb $end
$var reg 1 % i_wb_we $end
$var reg 32 & i_wb_addr[31:0] $end
$var reg 32 ' i_wb_data[31:0] $end
$var reg 1 ( o_wb_ack $end
$var reg 1 ) o_wb_stall $end
$var reg 32 * o_wb_data[31:0] $end
$var integer 32 + cycle_cnt $end
$scope module dut $end
$var reg 1 , clk $end
$var reg 1 - reset $end
$var reg 1 . i_wb_cyc $end
$var reg 1 / i_wb_stb $end
$var reg 1 0 i_wb_we $end
$var reg 32 1 i_wb_addr[31:0] $end
$var reg 32 2 i_wb_data[31:0] $end
$var reg 1 3 o_wb_ack $end
$var reg 1 4 o_wb_stall $end
$var reg 32 5 o_wb_data[31:0] $end
$var reg 32 6 data_r[31:0] $end
$var reg 1 7 ack_r $end
$comment tensor_a is not handled $end
$comment tensor_b is not handled $end
$comment tensor_c is not handled $end
$comment tensor_r is not handled $end
$var reg 32 8 ctrl_reg[31:0] $end
$var reg 32 9 status_reg[31:0] $end
$var reg 8 : dim_side_len_8[7:0] $end
$var reg 32 ; dim_side_len_bus[31:0] $end
$var reg 32 < pool_base_index[31:0] $end
$var reg 32 = pool_out_index[31:0] $end
$var reg 32 > word_index_reg[31:0] $end
$var reg 1 ? start_cmd $end
$var reg 1 @ ctrl0_prev $end
$var reg 1 A bus_dim_we $end
$var reg 8 B bus_dim_data[7:0] $end
$var reg 1 C pool_dim_we $end
$var reg 8 D pool_dim_data[7:0] $end
$comment state is not handled $end
$var reg 5 E op_code_reg[4:0] $end
$var reg 16 F base_i_reg[15:0] $end
$var reg 16 G out_i_reg[15:0] $end
$var reg 8 H din_reg[7:0] $end
$var reg 16 I word_i_reg[15:0] $end
$var reg 8 J num00_reg[7:0] $end
$var reg 8 K num01_reg[7:0] $end
$var reg 8 L num10_reg[7:0] $end
$var reg 8 M num11_reg[7:0] $end
$var reg 8 N r8_reg[7:0] $end
$var reg 32 O a_w_reg[31:0] $end
$var reg 32 P b_w_reg[31:0] $end
$var reg 32 Q c_w_reg[31:0] $end
$var reg 32 R r_w_reg[31:0] $end
$var reg 2 S read_idx[1:0] $end
$upscope $end
$upscope $end
$enddefinitions $end
#0
0!
1"
0#
0$
0%
b00000000000000000000000000000000 &
b00000000000000000000000000000000 '
0(
0)
b00000000000000000000000000000000 *
b0 +
0,
1-
0.
0/
00
b00000000000000000000000000000000 1
b00000000000000000000000000000000 2
03
04
b00000000000000000000000000000000 5
b00000000000000000000000000000000 6
07
b00000000000000000000000000000000 8
b00000000000000000000000000000000 9
b00000000 :
b00000000000000000000000000000000 ;
b00000000000000000000000000000000 <
b00000000000000000000000000000000 =
b00000000000000000000000000000000 >
0?
0@
0A
b00000000 B
0C
b00000000 D
b00000 E
b0000000000000000 F
b0000000000000000 G
b00000000 H
b0000000000000000 I
b00000000 J
b00000000 K
b00000000 L
b00000000 M
b00000000 N
b00000000000000000000000000000000 O
b00000000000000000000000000000000 P
b00000000000000000000000000000000 Q
b00000000000000000000000000000000 R
b00 S
#5000000
1!
0"
1#
1$
1%
b10010000000000000000000000010000 &
b00000000000000000000000000001000 '
b1 +
1,
0-
1.
1/
10
b10010000000000000000000000010000 1
b00000000000000000000000000001000 2
#10000000
0!
0,
#15000000
1!
1(
b10 +
1,
13
17
1A
b00001000 B
#20000000
0!
0,
#25000000
1!
b10010000000000000001000000000000 &
b10000000011111110000000000010000 '
b11 +
1,
b10010000000000000001000000000000 1
b10000000011111110000000000010000 2
b00001000 :
b00000000000000000000000000001000 ;
#30000000
0!
0,
#35000000
1!
b10010000000000000001000000000100 &
b11111111000000010000001000000011 '
b100 +
1,
b10010000000000000001000000000100 1
b11111111000000010000001000000011 2
0A
#40000000
0!
0,
#45000000
1!
b10010000000000000001000000001000 &
b11110000000000000001000000000000 '
b101 +
1,
b10010000000000000001000000001000 1
b11110000000000000001000000000000 2
#50000000
0!
0,
#55000000
1!
b10010000000000000001000000001100 &
b01111111100000000000000000010000 '
b110 +
1,
b10010000000000000001000000001100 1
b01111111100000000000000000010000 2
#60000000
0!
0,
#65000000
1!
b10010000000000000001000000010000 &
b00000001000000100000001100000100 '
b111 +
1,
b10010000000000000001000000010000 1
b00000001000000100000001100000100 2
#70000000
0!
0,
#75000000
1!
b10010000000000000001000000010100 &
b11110000111100011111001011110011 '
b1000 +
1,
b10010000000000000001000000010100 1
b11110000111100011111001011110011 2
#80000000
0!
0,
#85000000
1!
b10010000000000000001000000011000 &
b00010000000100010001001000010011 '
b1001 +
1,
b10010000000000000001000000011000 1
b00010000000100010001001000010011 2
#90000000
0!
0,
#95000000
1!
b10010000000000000001000000011100 &
b10000000100000011000001010000011 '
b1010 +
1,
b10010000000000000001000000011100 1
b10000000100000011000001010000011 2
#100000000
0!
0,
#105000000
1!
b10010000000000000001000000100000 &
b00100000001000010010001000100011 '
b1011 +
1,
b10010000000000000001000000100000 1
b00100000001000010010001000100011 2
#110000000
0!
0,
#115000000
1!
b10010000000000000001000000100100 &
b01111111011111100111110101111100 '
b1100 +
1,
b10010000000000000001000000100100 1
b01111111011111100111110101111100 2
#120000000
0!
0,
#125000000
1!
b10010000000000000001000000101000 &
b00000000000000000000000000000001 '
b1101 +
1,
b10010000000000000001000000101000 1
b00000000000000000000000000000001 2
#130000000
0!
0,
#135000000
1!
b10010000000000000001000000101100 &
b11111110111111011111110011111011 '
b1110 +
1,
b10010000000000000001000000101100 1
b11111110111111011111110011111011 2
#140000000
0!
0,
#145000000
1!
b10010000000000000001000000110000 &
b00110000001100010011001000110011 '
b1111 +
1,
b10010000000000000001000000110000 1
b00110000001100010011001000110011 2
#150000000
0!
0,
#155000000
1!
b10010000000000000001000000110100 &
b01000000010000010100001001000011 '
b10000 +
1,
b10010000000000000001000000110100 1
b01000000010000010100001001000011 2
#160000000
0!
0,
#165000000
1!
b10010000000000000001000000111000 &
b01010000010100010101001001010011 '
b10001 +
1,
b10010000000000000001000000111000 1
b01010000010100010101001001010011 2
#170000000
0!
0,
#175000000
1!
b10010000000000000001000000111100 &
b01100000011000010110001001100011 '
b10010 +
1,
b10010000000000000001000000111100 1
b01100000011000010110001001100011 2
#180000000
0!
0,
#185000000
1!
b10010000000000000000000000011100 &
b00000000000000000000000000000000 '
b10011 +
1,
b10010000000000000000000000011100 1
b00000000000000000000000000000000 2
#190000000
0!
0,
#195000000
1!
b10010000000000000000000000001000 &
b00000000000000000000000000001011 '
b10100 +
1,
b10010000000000000000000000001000 1
b00000000000000000000000000001011 2
#200000000
0!
0,
#205000000
1!
0%
b10010000000000000000000000001100 &
b10101 +
1,
00
b10010000000000000000000000001100 1
b00000000000000000000000000001011 8
#210000000
0!
0,
#215000000
1!
b10110 +
1,
1?
1@
#220000000
0!
0,
#225000000
1!
b10111 +
1,
0?
#230000000
0!
0,
#235000000
1!
b11000 +
1,
b00000000000000000000000000000001 9
b00101 E
b00001000 H
#240000000
0!
0,
#245000000
1!
b00000000000000000000000000000001 *
b11001 +
1,
b00000000000000000000000000000001 5
b00000000000000000000000000000001 6
#250000000
0!
0,
#255000000
1!
b11010 +
1,
b10000000011111110000000000010000 O
#260000000
0!
0,
#265000000
1!
b11011 +
1,
b00000000011111110000000000010000 R
#270000000
0!
0,
#275000000
1!
b11100 +
1,
#280000000
0!
0,
#285000000
1!
b11101 +
1,
b00000000000000000000000000000010 9
#290000000
0!
0,
#295000000
1!
b00000000000000000000000000000010 *
b11110 +
1,
b00000000000000000000000000000010 5
b00000000000000000000000000000010 6
#300000000
0!
0,
#305000000
1!
1%
b10010000000000000000000000011100 &
b00000000000000000000000000000001 '
b11111 +
1,
10
b10010000000000000000000000011100 1
b00000000000000000000000000000001 2
#310000000
0!
0,
#315000000
1!
b10010000000000000000000000001000 &
b00000000000000000000000000001011 '
b100000 +
1,
b10010000000000000000000000001000 1
b00000000000000000000000000001011 2
b00000000000000000000000000000001 >
#320000000
0!
0,
#325000000
1!
0%
b10010000000000000000000000001100 &
b100001 +
1,
00
b10010000000000000000000000001100 1
#330000000
0!
0,
#335000000
1!
1%
b10010000000000000000000000011100 &
b00000000000000000000000000000010 '
b100010 +
1,
10
b10010000000000000000000000011100 1
b00000000000000000000000000000010 2
#340000000
0!
0,
#345000000
1!
b10010000000000000000000000001000 &
b00000000000000000000000000001011 '
b100011 +
1,
b10010000000000000000000000001000 1
b00000000000000000000000000001011 2
b00000000000000000000000000000010 >
#350000000
0!
0,
#355000000
1!
0%
b10010000000000000000000000001100 &
b100100 +
1,
00
b10010000000000000000000000001100 1
#360000000
0!
0,
#365000000
1!
1%
b10010000000000000000000000011100 &
b00000000000000000000000000000011 '
b100101 +
1,
10
b10010000000000000000000000011100 1
b00000000000000000000000000000011 2
#370000000
0!
0,
#375000000
1!
b10010000000000000000000000001000 &
b00000000000000000000000000001011 '
b100110 +
1,
b10010000000000000000000000001000 1
b00000000000000000000000000001011 2
b00000000000000000000000000000011 >
#380000000
0!
0,
#385000000
1!
0%
b10010000000000000000000000001100 &
b100111 +
1,
00
b10010000000000000000000000001100 1
#390000000
0!
0,
#395000000
1!
1%
b10010000000000000000000000011100 &
b00000000000000000000000000000100 '
b101000 +
1,
10
b10010000000000000000000000011100 1
b00000000000000000000000000000100 2
#400000000
0!
0,
#405000000
1!
b10010000000000000000000000001000 &
b00000000000000000000000000001011 '
b101001 +
1,
b10010000000000000000000000001000 1
b00000000000000000000000000001011 2
b00000000000000000000000000000100 >
#410000000
0!
0,
#415000000
1!
0%
b10010000000000000000000000001100 &
b101010 +
1,
00
b10010000000000000000000000001100 1
#420000000
0!
0,
#425000000
1!
1%
b10010000000000000000000000011100 &
b00000000000000000000000000000101 '
b101011 +
1,
10
b10010000000000000000000000011100 1
b00000000000000000000000000000101 2
#430000000
0!
0,
#435000000
1!
b10010000000000000000000000001000 &
b00000000000000000000000000001011 '
b101100 +
1,
b10010000000000000000000000001000 1
b00000000000000000000000000001011 2
b00000000000000000000000000000101 >
#440000000
0!
0,
#445000000
1!
0%
b10010000000000000000000000001100 &
b101101 +
1,
00
b10010000000000000000000000001100 1
#450000000
0!
0,
#455000000
1!
1%
b10010000000000000000000000011100 &
b00000000000000000000000000000110 '
b101110 +
1,
10
b10010000000000000000000000011100 1
b00000000000000000000000000000110 2
#460000000
0!
0,
#465000000
1!
b10010000000000000000000000001000 &
b00000000000000000000000000001011 '
b101111 +
1,
b10010000000000000000000000001000 1
b00000000000000000000000000001011 2
b00000000000000000000000000000110 >
#470000000
0!
0,
#475000000
1!
0%
b10010000000000000000000000001100 &
b110000 +
1,
00
b10010000000000000000000000001100 1
#480000000
0!
0,
#485000000
1!
1%
b10010000000000000000000000011100 &
b00000000000000000000000000000111 '
b110001 +
1,
10
b10010000000000000000000000011100 1
b00000000000000000000000000000111 2
#490000000
0!
0,
#495000000
1!
b10010000000000000000000000001000 &
b00000000000000000000000000001011 '
b110010 +
1,
b10010000000000000000000000001000 1
b00000000000000000000000000001011 2
b00000000000000000000000000000111 >
#500000000
0!
0,
#505000000
1!
0%
b10010000000000000000000000001100 &
b110011 +
1,
00
b10010000000000000000000000001100 1
#510000000
0!
0,
#515000000
1!
1%
b10010000000000000000000000011100 &
b00000000000000000000000000001000 '
b110100 +
1,
10
b10010000000000000000000000011100 1
b00000000000000000000000000001000 2
#520000000
0!
0,
#525000000
1!
b10010000000000000000000000001000 &
b00000000000000000000000000001011 '
b110101 +
1,
b10010000000000000000000000001000 1
b00000000000000000000000000001011 2
b00000000000000000000000000001000 >
#530000000
0!
0,
#535000000
1!
0%
b10010000000000000000000000001100 &
b110110 +
1,
00
b10010000000000000000000000001100 1
#540000000
0!
0,
#545000000
1!
1%
b10010000000000000000000000011100 &
b00000000000000000000000000001001 '
b110111 +
1,
10
b10010000000000000000000000011100 1
b00000000000000000000000000001001 2
#550000000
0!
0,
#555000000
1!
b10010000000000000000000000001000 &
b00000000000000000000000000001011 '
b111000 +
1,
b10010000000000000000000000001000 1
b00000000000000000000000000001011 2
b00000000000000000000000000001001 >
#560000000
0!
0,
#565000000
1!
0%
b10010000000000000000000000001100 &
b111001 +
1,
00
b10010000000000000000000000001100 1
#570000000
0!
0,
#575000000
1!
1%
b10010000000000000000000000011100 &
b00000000000000000000000000001010 '
b111010 +
1,
10
b10010000000000000000000000011100 1
b00000000000000000000000000001010 2
#580000000
0!
0,
#585000000
1!
b10010000000000000000000000001000 &
b00000000000000000000000000001011 '
b111011 +
1,
b10010000000000000000000000001000 1
b00000000000000000000000000001011 2
b00000000000000000000000000001010 >
#590000000
0!
0,
#595000000
1!
0%
b10010000000000000000000000001100 &
b111100 +
1,
00
b10010000000000000000000000001100 1
#600000000
0!
0,
#605000000
1!
1%
b10010000000000000000000000011100 &
b111101 +
1,
10
b10010000000000000000000000011100 1
#610000000
0!
0,
#615000000
1!
b10010000000000000000000000001000 &
b111110 +
1,
b10010000000000000000000000001000 1
b00000000000000000000000000001011 >
#620000000
0!
0,
#625000000
1!
0%
b10010000000000000000000000001100 &
b111111 +
1,
00
b10010000000000000000000000001100 1
#630000000
0!
0,
#635000000
1!
1%
b10010000000000000000000000011100 &
b00000000000000000000000000001100 '
b1000000 +
1,
10
b10010000000000000000000000011100 1
b00000000000000000000000000001100 2
#640000000
0!
0,
#645000000
1!
b10010000000000000000000000001000 &
b00000000000000000000000000001011 '
b1000001 +
1,
b10010000000000000000000000001000 1
b00000000000000000000000000001011 2
b00000000000000000000000000001100 >
#650000000
0!
0,
#655000000
1!
0%
b10010000000000000000000000001100 &
b1000010 +
1,
00
b10010000000000000000000000001100 1
#660000000
0!
0,
#665000000
1!
1%
b10010000000000000000000000011100 &
b00000000000000000000000000001101 '
b1000011 +
1,
10
b10010000000000000000000000011100 1
b00000000000000000000000000001101 2
#670000000
0!
0,
#675000000
1!
b10010000000000000000000000001000 &
b00000000000000000000000000001011 '
b1000100 +
1,
b10010000000000000000000000001000 1
b00000000000000000000000000001011 2
b00000000000000000000000000001101 >
#680000000
0!
0,
#685000000
1!
0%
b10010000000000000000000000001100 &
b1000101 +
1,
00
b10010000000000000000000000001100 1
#690000000
0!
0,
#695000000
1!
1%
b10010000000000000000000000011100 &
b00000000000000000000000000001110 '
b1000110 +
1,
10
b10010000000000000000000000011100 1
b00000000000000000000000000001110 2
#700000000
0!
0,
#705000000
1!
b10010000000000000000000000001000 &
b00000000000000000000000000001011 '
b1000111 +
1,
b10010000000000000000000000001000 1
b00000000000000000000000000001011 2
b00000000000000000000000000001110 >
#710000000
0!
0,
#715000000
1!
0%
b10010000000000000000000000001100 &
b1001000 +
1,
00
b10010000000000000000000000001100 1
#720000000
0!
0,
#725000000
1!
1%
b10010000000000000000000000011100 &
b00000000000000000000000000001111 '
b1001001 +
1,
10
b10010000000000000000000000011100 1
b00000000000000000000000000001111 2
#730000000
0!
0,
#735000000
1!
b10010000000000000000000000001000 &
b00000000000000000000000000001011 '
b1001010 +
1,
b10010000000000000000000000001000 1
b00000000000000000000000000001011 2
b00000000000000000000000000001111 >
#740000000
0!
0,
#745000000
1!
0%
b10010000000000000000000000001100 &
b1001011 +
1,
00
b10010000000000000000000000001100 1
#750000000
0!
0,
#755000000
1!
0#
0$
b1001100 +
1,
0.
0/
#760000000
0!
0,
#765000000
1!
0(
b1001101 +
1,
03
07
#770000000
0!
0,
#775000000
1!
b1001110 +
1,
#780000000
0!
0,
#785000000
1!
b1001111 +
1,
#790000000
0!
0,
#795000000
1!
b1010000 +
1,
#800000000
0!
0,
#805000000
1!
b1010001 +
1,
#810000000
0!
0,
#815000000
1!
b1010010 +
1,
#820000000
0!
0,
#825000000
1!
b1010011 +
1,
#830000000
0!
0,
#835000000
1!
b1010100 +
1,
#840000000
0!
0,
#845000000
1!
b1010101 +
1,
